<svg width="16" height="16" viewBox="0 0 16 16" fill="none" xmlns="http://www.w3.org/2000/svg">
<path fill-rule="evenodd" clip-rule="evenodd" d="M10.3334 8C10.3334 8.17066 10.2681 8.34133 10.1381 8.47133L7.47142 11.138C7.21075 11.3987 6.78942 11.3987 6.52875 11.138C6.26809 10.8773 6.26809 10.456 6.52875 10.1953L8.73208 7.992L6.61209 5.79666C6.35675 5.53066 6.36409 5.11 6.62875 4.854C6.89342 4.598 7.31608 4.60533 7.57142 4.87L10.1461 7.53666C10.2714 7.66666 10.3334 7.83333 10.3334 8Z" fill="#ff7800"/>
<mask id="mask0" mask-type="alpha" maskUnits="userSpaceOnUse" x="6" y="4" width="5" height="8">
<path fill-rule="evenodd" clip-rule="evenodd" d="M10.3334 8C10.3334 8.17066 10.2681 8.34133 10.1381 8.47133L7.47142 11.138C7.21075 11.3987 6.78942 11.3987 6.52875 11.138C6.26809 10.8773 6.26809 10.456 6.52875 10.1953L8.73208 7.992L6.61209 5.79666C6.35675 5.53066 6.36409 5.11 6.62875 4.854C6.89342 4.598 7.31608 4.60533 7.57142 4.87L10.1461 7.53666C10.2714 7.66666 10.3334 7.83333 10.3334 8Z" fill="white"/>
</mask>
<g mask="url(#mask0)">
<rect y="16" width="16" height="16" transform="rotate(-90 0 16)" fill="#ff7800"/>
</g>
</svg>
