<svg width="24" height="24" viewBox="0 0 24 24" fill="none" xmlns="http://www.w3.org/2000/svg">
<path fill-rule="evenodd" clip-rule="evenodd" d="M5.91425 5.00001H17.9102C19.8892 5.00001 21.5002 6.58301 21.5002 8.52901V11C21.5002 11.553 21.0532 12 20.5002 12C19.9473 12 19.5002 11.553 19.5002 11V8.52901C19.5002 7.68701 18.7873 7.00001 17.9102 7.00001H5.91425L7.20725 8.29301C7.59725 8.68401 7.59725 9.31601 7.20725 9.70701C7.01225 9.90201 6.75625 10 6.50025 10C6.24425 10 5.98825 9.90201 5.79325 9.70701L2.79325 6.70701C2.40225 6.31601 2.40225 5.68401 2.79325 5.29301L5.79325 2.29301C6.18325 1.90201 6.81625 1.90201 7.20725 2.29301C7.59725 2.68401 7.59725 3.31601 7.20725 3.70701L5.91425 5.00001ZM16.793 14.293C17.1841 13.902 17.816 13.902 18.207 14.293L21.2071 17.293C21.5981 17.684 21.5981 18.316 21.2071 18.707L18.207 21.707C18.012 21.902 17.7561 22 17.5 22C17.2441 22 16.9881 21.902 16.793 21.707C16.4021 21.316 16.4021 20.684 16.793 20.293L18.0861 19H6.09005C4.11005 19 2.50005 17.417 2.50005 15.471V13C2.50005 12.447 2.94805 12 3.50005 12C4.05205 12 4.50005 12.447 4.50005 13V15.471C4.50005 16.314 5.21305 17 6.09005 17H18.0861L16.793 15.707C16.4021 15.316 16.4021 14.684 16.793 14.293Z" fill="white"/>
<mask id="mask0" mask-type="alpha" maskUnits="userSpaceOnUse" x="2" y="1" width="20" height="21">
<path fill-rule="evenodd" clip-rule="evenodd" d="M5.91425 5.00001H17.9102C19.8892 5.00001 21.5002 6.58301 21.5002 8.52901V11C21.5002 11.553 21.0532 12 20.5002 12C19.9473 12 19.5002 11.553 19.5002 11V8.52901C19.5002 7.68701 18.7873 7.00001 17.9102 7.00001H5.91425L7.20725 8.29301C7.59725 8.68401 7.59725 9.31601 7.20725 9.70701C7.01225 9.90201 6.75625 10 6.50025 10C6.24425 10 5.98825 9.90201 5.79325 9.70701L2.79325 6.70701C2.40225 6.31601 2.40225 5.68401 2.79325 5.29301L5.79325 2.29301C6.18325 1.90201 6.81625 1.90201 7.20725 2.29301C7.59725 2.68401 7.59725 3.31601 7.20725 3.70701L5.91425 5.00001ZM16.793 14.293C17.1841 13.902 17.816 13.902 18.207 14.293L21.2071 17.293C21.5981 17.684 21.5981 18.316 21.2071 18.707L18.207 21.707C18.012 21.902 17.7561 22 17.5 22C17.2441 22 16.9881 21.902 16.793 21.707C16.4021 21.316 16.4021 20.684 16.793 20.293L18.0861 19H6.09005C4.11005 19 2.50005 17.417 2.50005 15.471V13C2.50005 12.447 2.94805 12 3.50005 12C4.05205 12 4.50005 12.447 4.50005 13V15.471C4.50005 16.314 5.21305 17 6.09005 17H18.0861L16.793 15.707C16.4021 15.316 16.4021 14.684 16.793 14.293Z" fill="white"/>
</mask>
<g mask="url(#mask0)">
<rect width="24" height="24" fill="white"/>
</g>
</svg>
