<svg width="248" height="120" viewBox="0 0 248 120" fill="none" xmlns="http://www.w3.org/2000/svg">
<path d="M248 0L248 120C248 120 238.02 60 170.656 31C103.292 1.99997 0 7.62196e-09 0 7.62196e-09L248 0Z" fill="white" fill-opacity="0.2"/>
</svg>
